"2016-06-07 18:58:10",Alice,Schaut mal
"2016-06-07 18:58:37",Alice,ich schreie
"2016-06-07 19:16:01",Bob,"Hallo Welt"
"2016-11-24 14:41:21",us,"mein text"
"2016-11-24 14:41:31",us,"noch was"
"2016-11-24 14:42:22",us,"was ist jetzt anders?"
"2016-11-24 15:21:44",sfef,dgdfg
"2017-11-19 14:06:51",us,"Hallo Shoutbox"
"2017-11-19 14:07:06",Alice,"Ich war auch schon wieder hier"
"2017-11-19 14:40:19",WebTech,2017
